<svg xmlns="http://www.w3.org/2000/svg" width="16" height="16" viewBox="0 0 16 16">
    <path fill="#999" fill-rule="evenodd" d="M3.8 6.99l5.6-5.592L8 0 0 7.988l8 7.987 1.4-1.398-5.6-5.591H16V6.989z"/>
</svg>
