<svg xmlns="http://www.w3.org/2000/svg" width="12" height="18" viewBox="0 0 12 18">
    <g fill="#3DD0AC" fill-rule="evenodd">
        <path d="M6 13.5a4.5 4.5 0 1 1 0-9 4.5 4.5 0 0 1 0 9m3.239-9.546L8.25 0h-4.5l-.989 3.954a5.99 5.99 0 0 0 0 10.092L3.75 18h4.5l.989-3.954a5.99 5.99 0 0 0 0-10.092"/>
        <text font-family="Roboto-Regular, Roboto" font-size="10">
            <tspan x="3.2" y="12.4">+</tspan>
        </text>
    </g>
</svg>
